{
  "partners": [
    {
     "image": "https://cdn2.bigcommerce.com/server1500/ac84d/products/1203/images/2686/Adidas_Logo_Stack__93206.1337144792.380.380.jpg?c=2",
     "name": "Адидас",
     "produce": "Спортивные товары",
     "site": "https://www.adidas.ru/"
    },
    {
     "image": "https://i.pinimg.com/originals/70/67/3f/70673fc3a4f816839f1d17e16cc5f40e.jpg",
     "name": "Пума",
     "produce": "Спортивные товары",
     "site": "https://www.googleadservices.com/pagead/aclk?sa=L&ai=DChcSEwjj6KDz5K7hAhWUqJoKHVRrAxMYABAAGgJsbQ&ohost=www.google.com&cid=CAESQeD2m0xSWzn_cYvxlCDgfLVh99dDt86G6vYB1KWCTk4Gtln6vEBXJ1gxgUd7b5TDqp0nF7BGW1ee0GSm5nTXlG6_&sig=AOD64_0AW9cs0J5YCuQliiUjdssHgCx6RA&q=&ved=2ahUKEwjpjZvz5K7hAhUBtYsKHSNEDcwQ0Qx6BAgMEAE&adurl="
    },
    {
     "image": "https://upload.wikimedia.org/wikipedia/commons/9/9b/Logo_Audemars_Piguet.jpg",
     "name": "Audemars Piguet",
     "produce": "Часы",
     "site": "https://www.audemarspiguet.com/ru/"
    },
    {
     "image": "https://upload.wikimedia.org/wikipedia/ru/e/ee/Droz_logo.gif",
     "name": "Jaquet Droz",
     "produce": "Часы",
     "site": "https://www.jaquet-droz.com"
    }
  ]
}
