{
  "special_items": [
    {
     "image": "http://pngimg.com/uploads/jeans/jeans_PNG5750.png",
     "category": "Одежда"
    },
    {
     "image": "https://www.bestwatch.ru/images/Frederique%20Constant/big/FC-303LGS5B6.jpg",
     "category": "Часы"
    }
  ]
}