{
  "images" : [
    {
      "idiom" : "universal",
      "filename" : "skidka-na-detskuyu-odejdu-moschino-mandarino-brums_5a27d58937e05.png.jpeg",
      "scale" : "1x"
    },
    {
      "idiom" : "universal",
      "scale" : "2x"
    },
    {
      "idiom" : "universal",
      "scale" : "3x"
    }
  ],
  "info" : {
    "version" : 1,
    "author" : "xcode"
  }
}